…
``` r
library(tsrf)
set.seed(1733)
tsnum <- 20
tslbl <- factor(rep(c("A", "B"), each = tsnum))
tslen <- 250
Aval <- replicate(tsnum, rnorm(tslen))
Bval <- replicate(tsnum, c(rnorm(tslen / 2), cumsum(rnorm(tslen / 2, 0.5, 0.2))))
tsdat <- tibble::as_tibble(data.frame(
  id = rep(1:(2 * tsnum), each = tslen),
  val = c(as.numeric(Aval), as.numeric(Bval))
))
tibble::as_tibble(tsdat)
#> # A tibble: 10,000 x 2
#>       id    val
#>    <int>  <dbl>
#>  1     1 -0.198
#>  2     1 -0.703
#>  3     1 -0.480
#>  4     1 -1.39 
#>  5     1  0.459
#>  6     1 -1.34 
#>  7     1  0.981
#>  8     1  1.26 
#>  9     1  0.275
#> 10     1  2.09 
#> # … with 9,990 more rows
```
…
prevalence <- sapply(
  seq(tslen),
  function(i) sum(i >= tsints[, 1] & i <= tsints[, 2]) / nrow(tsints)
)
plot(seq(tslen), prevalence, type = "l", xlab = "index")
```

<img src="man/figures/README-feat_ts-1.png" width="100%" />

``` r

tibble::as_tibble(tsfeat)
#> # A tibble: 40 x 676
#>       id mean_val_1 sd_val_1 slope_val_1 mean_val_2 sd_val_2 slope_val_2
#>    <int>      <dbl>    <dbl>       <dbl>      <dbl>    <dbl>       <dbl>
#>  1     1   -0.107      0.944  -0.00570       0.0822    1.01    -0.00349 
#>  2     2   -0.0414     1.02    0.000914     -0.0487    1.06    -0.00233 
#>  3     3    0.224      1.09   -0.00169       0.0638    1.06     0.00532 
#>  4     4    0.0805     0.889   0.000582      0.0164    1.01    -0.000800
#>  5     5   -0.00361    0.964   0.0000832    -0.104     0.977    0.00389 
#>  6     6   -0.103      0.950   0.0101        0.0117    1.02    -0.00624 
#>  7     7    0.0806     0.917   0.00278       0.0422    0.900   -0.00430 
#>  8     8   -0.0977     1.13   -0.00767       0.0372    1.12    -0.00288 
#>  9     9    0.0489     1.13    0.00449      -0.0392    1.05     0.00418 
#> 10    10    0.181      0.929  -0.00167       0.129     0.966    0.00276 
#> # … with 30 more rows, and 669 more variables: mean_val_3 <dbl>,
#> #   sd_val_3 <dbl>, slope_val_3 <dbl>, mean_val_4 <dbl>, sd_val_4 <dbl>,
#> #   slope_val_4 <dbl>, mean_val_5 <dbl>, sd_val_5 <dbl>, slope_val_5 <dbl>,
#> #   mean_val_6 <dbl>, sd_val_6 <dbl>, slope_val_6 <dbl>, mean_val_7 <dbl>,
#> #   sd_val_7 <dbl>, slope_val_7 <dbl>, mean_val_8 <dbl>, sd_val_8 <dbl>,
#> #   slope_val_8 <dbl>, mean_val_9 <dbl>, sd_val_9 <dbl>, slope_val_9 <dbl>,
#> #   mean_val_10 <dbl>, sd_val_10 <dbl>, slope_val_10 <dbl>, mean_val_11 <dbl>,
#> #   sd_val_11 <dbl>, slope_val_11 <dbl>, mean_val_12 <dbl>, sd_val_12 <dbl>,
#> #   slope_val_12 <dbl>, mean_val_13 <dbl>, sd_val_13 <dbl>, slope_val_13 <dbl>,
…
